[
    {
        "pergunta": "# O que é Programa Membro VIP ?",
        "resposta": "É o nosso novo e exclusivo programa de recompensas, onde você recebe pontos e pode trocar por ingressos, consumo na casa e experiências incríveis. Sabe o melhor? Você não paga nada por isso."
    },
    {
        "pergunta": "# Quanto vale cada ponto ?",
        "resposta": "Cada ponto gerado equivale ao valor de R$ 1,00 (um real). Simples assim! Você pode utilizar seus pontos para pagar seu consumo dentro da casa ou comprar ingressos para os shows, por exemplo."
    },
    {
        "pergunta": "# Quantos pontos eu ganho ?",
        "resposta": "Ao consumir na casa e comprar ingressos, você ganha 5% do valor gasto em pontos. Por exemplo, se um ingresso custar R$100 você ganhará 5 pontos."
    }
]